EESchema Schematic File Version 2
LIBS:power
LIBS:device
LIBS:switches
LIBS:relays
LIBS:motors
LIBS:transistors
LIBS:conn
LIBS:linear
LIBS:regul
LIBS:74xx
LIBS:cmos4000
LIBS:adc-dac
LIBS:memory
LIBS:xilinx
LIBS:microcontrollers
LIBS:dsp
LIBS:microchip
LIBS:analog_switches
LIBS:motorola
LIBS:texas
LIBS:intel
LIBS:audio
LIBS:interface
LIBS:digital-audio
LIBS:philips
LIBS:display
LIBS:cypress
LIBS:siliconi
LIBS:opto
LIBS:atmel
LIBS:contrib
LIBS:valves
LIBS:ESP8266
LIBS:adxl345
LIBS:TEM-HUM-AM2302_4P-25.0X15.0MM_
EELAYER 25 0
EELAYER END
$Descr A4 11693 8268
encoding utf-8
Sheet 1 1
Title "TFG-NODE 2"
Date ""
Rev ""
Comp ""
Comment1 ""
Comment2 ""
Comment3 ""
Comment4 ""
$EndDescr
$Comp
L NodeMCU1.0(ESP-12E) U?
U 1 1 5B79A375
P 5550 3750
F 0 "U?" H 5550 4600 60  0000 C CNN
F 1 "NodeMCU1.0(ESP-12E)" H 5550 2900 60  0000 C CNN
F 2 "" H 4950 2900 60  0000 C CNN
F 3 "" H 4950 2900 60  0000 C CNN
	1    5550 3750
	1    0    0    -1  
$EndComp
$Comp
L ADXL345 IC?
U 1 1 5B79A41A
P 3350 3350
F 0 "IC?" H 3050 3750 50  0000 L CNN
F 1 "ADXL345" H 3050 2750 50  0000 L CNN
F 2 "agg:ADXL3x5" H 3050 2650 50  0001 L CNN
F 3 "" H 2950 2850 50  0001 C CNN
F 4 "1853935" H 3050 2550 50  0001 L CNN "Farnell"
	1    3350 3350
	1    0    0    -1  
$EndComp
Wire Wire Line
	2950 3150 2950 3450
Connection ~ 2950 3350
Connection ~ 2950 3250
$Comp
L VSS #PWR?
U 1 1 5B79A5E3
P 2950 3450
F 0 "#PWR?" H 2950 3300 50  0001 C CNN
F 1 "VSS" H 2950 3600 50  0000 C CNN
F 2 "" H 2950 3450 50  0001 C CNN
F 3 "" H 2950 3450 50  0001 C CNN
	1    2950 3450
	0    -1   -1   0   
$EndComp
$Comp
L TEM-HUM-AM2302(4P-25.0X15.0MM) U?
U 1 1 5B79A69B
P 7800 2450
F 0 "U?" H 7650 2650 50  0000 L BNN
F 1 "DHT22" H 7650 2200 50  0000 L BNN
F 2 "SNR4-2.54-25.0X15.0X7.0MM" H 7800 2450 50  0001 L BNN
F 3 "MCM Electronics" H 7800 2450 50  0001 L BNN
F 4 "None" H 7800 2450 50  0001 L BNN "Field4"
F 5 "AM2302" H 7800 2450 50  0001 L BNN "Field5"
F 6 "Unavailable" H 7800 2450 50  0001 L BNN "Field6"
F 7 "DHT22 Temp / Humidity Sensor DHT22 Temp / Humidity Sensor" H 7800 2450 50  0001 L BNN "Field7"
F 8 "None" H 7800 2450 50  0001 L BNN "Field8"
	1    7800 2450
	-1   0    0    -1  
$EndComp
$Comp
L TEM-HUM-AM2302(4P-25.0X15.0MM) U?
U 1 1 5B79A78D
P 7800 3200
F 0 "U?" H 7650 3400 50  0000 L BNN
F 1 "AM2320" H 7650 2950 50  0000 L BNN
F 2 "SNR4-2.54-25.0X15.0X7.0MM" H 7800 3200 50  0001 L BNN
F 3 "MCM Electronics" H 7800 3200 50  0001 L BNN
F 4 "None" H 7800 3200 50  0001 L BNN "Field4"
F 5 "AM2302" H 7800 3200 50  0001 L BNN "Field5"
F 6 "Unavailable" H 7800 3200 50  0001 L BNN "Field6"
F 7 "DHT22 Temp / Humidity Sensor DHT22 Temp / Humidity Sensor" H 7800 3200 50  0001 L BNN "Field7"
F 8 "None" H 7800 3200 50  0001 L BNN "Field8"
	1    7800 3200
	-1   0    0    -1  
$EndComp
Text GLabel 3750 3550 2    60   Input ~ 0
CS
Text GLabel 6350 3450 2    60   Input ~ 0
CS
$Comp
L +3V3 #PWR?
U 1 1 5B79A81F
P 4350 4050
F 0 "#PWR?" H 4350 3900 50  0001 C CNN
F 1 "+3V3" H 4350 4190 50  0000 C CNN
F 2 "" H 4350 4050 50  0001 C CNN
F 3 "" H 4350 4050 50  0001 C CNN
	1    4350 4050
	1    0    0    -1  
$EndComp
$Comp
L +3V3 #PWR?
U 1 1 5B79A83D
P 2950 3050
F 0 "#PWR?" H 2950 2900 50  0001 C CNN
F 1 "+3V3" H 2950 3190 50  0000 C CNN
F 2 "" H 2950 3050 50  0001 C CNN
F 3 "" H 2950 3050 50  0001 C CNN
	1    2950 3050
	1    0    0    -1  
$EndComp
$Comp
L +3V3 #PWR?
U 1 1 5B79A854
P 6700 4450
F 0 "#PWR?" H 6700 4300 50  0001 C CNN
F 1 "+3V3" H 6700 4590 50  0000 C CNN
F 2 "" H 6700 4450 50  0001 C CNN
F 3 "" H 6700 4450 50  0001 C CNN
	1    6700 4450
	1    0    0    -1  
$EndComp
$Comp
L +3V3 #PWR?
U 1 1 5B79A8E5
P 7500 2300
F 0 "#PWR?" H 7500 2150 50  0001 C CNN
F 1 "+3V3" H 7500 2440 50  0000 C CNN
F 2 "" H 7500 2300 50  0001 C CNN
F 3 "" H 7500 2300 50  0001 C CNN
	1    7500 2300
	1    0    0    -1  
$EndComp
$Comp
L +3V3 #PWR?
U 1 1 5B79A8FC
P 7500 3050
F 0 "#PWR?" H 7500 2900 50  0001 C CNN
F 1 "+3V3" H 7500 3190 50  0000 C CNN
F 2 "" H 7500 3050 50  0001 C CNN
F 3 "" H 7500 3050 50  0001 C CNN
	1    7500 3050
	1    0    0    -1  
$EndComp
$Comp
L VSS #PWR?
U 1 1 5B79A913
P 4750 3950
F 0 "#PWR?" H 4750 3800 50  0001 C CNN
F 1 "VSS" H 4750 4100 50  0000 C CNN
F 2 "" H 4750 3950 50  0001 C CNN
F 3 "" H 4750 3950 50  0001 C CNN
	1    4750 3950
	0    -1   -1   0   
$EndComp
$Comp
L VSS #PWR?
U 1 1 5B79A92A
P 7500 3350
F 0 "#PWR?" H 7500 3200 50  0001 C CNN
F 1 "VSS" H 7500 3500 50  0000 C CNN
F 2 "" H 7500 3350 50  0001 C CNN
F 3 "" H 7500 3350 50  0001 C CNN
	1    7500 3350
	-1   0    0    1   
$EndComp
$Comp
L VSS #PWR?
U 1 1 5B79A941
P 7500 2600
F 0 "#PWR?" H 7500 2450 50  0001 C CNN
F 1 "VSS" H 7500 2750 50  0000 C CNN
F 2 "" H 7500 2600 50  0001 C CNN
F 3 "" H 7500 2600 50  0001 C CNN
	1    7500 2600
	-1   0    0    1   
$EndComp
$Comp
L VSS #PWR?
U 1 1 5B79A958
P 6350 3650
F 0 "#PWR?" H 6350 3500 50  0001 C CNN
F 1 "VSS" H 6350 3800 50  0000 C CNN
F 2 "" H 6350 3650 50  0001 C CNN
F 3 "" H 6350 3650 50  0001 C CNN
	1    6350 3650
	0    1    1    0   
$EndComp
$Comp
L VSS #PWR?
U 1 1 5B79A96F
P 6350 4350
F 0 "#PWR?" H 6350 4200 50  0001 C CNN
F 1 "VSS" H 6350 4500 50  0000 C CNN
F 2 "" H 6350 4350 50  0001 C CNN
F 3 "" H 6350 4350 50  0001 C CNN
	1    6350 4350
	0    1    1    0   
$EndComp
Wire Wire Line
	6700 4450 6350 4450
$Comp
L +3V3 #PWR?
U 1 1 5B79A995
P 6700 3550
F 0 "#PWR?" H 6700 3400 50  0001 C CNN
F 1 "+3V3" H 6700 3690 50  0000 C CNN
F 2 "" H 6700 3550 50  0001 C CNN
F 3 "" H 6700 3550 50  0001 C CNN
	1    6700 3550
	1    0    0    -1  
$EndComp
Wire Wire Line
	6350 3550 6700 3550
Wire Wire Line
	4350 4050 4750 4050
Wire Wire Line
	7500 3150 7100 3150
Wire Wire Line
	7100 3150 7100 3250
Wire Wire Line
	7100 3250 6350 3250
Wire Wire Line
	6350 3150 7050 3150
Wire Wire Line
	7050 3150 7050 2400
Wire Wire Line
	7050 2400 7500 2400
Wire Wire Line
	3750 3850 4750 3850
Wire Wire Line
	3750 3750 4500 3750
Wire Wire Line
	4500 3750 4500 3550
Wire Wire Line
	4500 3550 4750 3550
Wire Wire Line
	3750 3650 4600 3650
Wire Wire Line
	4600 3650 4600 3750
Wire Wire Line
	4600 3750 4750 3750
$EndSCHEMATC
