EESchema Schematic File Version 2
LIBS:power
LIBS:device
LIBS:switches
LIBS:relays
LIBS:motors
LIBS:transistors
LIBS:conn
LIBS:linear
LIBS:regul
LIBS:74xx
LIBS:cmos4000
LIBS:adc-dac
LIBS:memory
LIBS:xilinx
LIBS:microcontrollers
LIBS:dsp
LIBS:microchip
LIBS:analog_switches
LIBS:motorola
LIBS:texas
LIBS:intel
LIBS:audio
LIBS:interface
LIBS:digital-audio
LIBS:philips
LIBS:display
LIBS:cypress
LIBS:siliconi
LIBS:opto
LIBS:atmel
LIBS:contrib
LIBS:valves
LIBS:TEM-HUM-AM2302_4P-25.0X15.0MM_
LIBS:ESP8266
LIBS:Analog_ADC
EELAYER 25 0
EELAYER END
$Descr A4 11693 8268
encoding utf-8
Sheet 1 1
Title "TFG-NODE 3"
Date "2018-08-19"
Rev ""
Comp ""
Comment1 ""
Comment2 ""
Comment3 ""
Comment4 ""
$EndDescr
$Comp
L NodeMCU1.0(ESP-12E) U?
U 1 1 5B798D1C
P 6650 3900
F 0 "U?" H 6650 4750 60  0000 C CNN
F 1 "NodeMCU1.0(ESP-12E)" H 6650 3050 60  0000 C CNN
F 2 "" H 6050 3050 60  0000 C CNN
F 3 "" H 6050 3050 60  0000 C CNN
	1    6650 3900
	1    0    0    -1  
$EndComp
$Comp
L ADS1118I U?
U 1 1 5B798E25
P 4000 3950
F 0 "U?" H 3400 4400 50  0000 L CNN
F 1 "ADS1118I" H 4250 4400 50  0000 L CNN
F 2 "" H 3950 3900 50  0001 C CNN
F 3 "" H 3100 4350 50  0001 C CNN
	1    4000 3950
	1    0    0    -1  
$EndComp
$Comp
L TEM-HUM-AM2302(4P-25.0X15.0MM) U?
U 1 1 5B798ED6
P 8750 2350
F 0 "U?" H 8600 2550 50  0000 L BNN
F 1 "DHT22" H 8600 2100 50  0000 L BNN
F 2 "SNR4-2.54-25.0X15.0X7.0MM" H 8750 2350 50  0001 L BNN
F 3 "MCM Electronics" H 8750 2350 50  0001 L BNN
F 4 "None" H 8750 2350 50  0001 L BNN "Field4"
F 5 "AM2302" H 8750 2350 50  0001 L BNN "Field5"
F 6 "Unavailable" H 8750 2350 50  0001 L BNN "Field6"
F 7 "DHT22 Temp / Humidity Sensor DHT22 Temp / Humidity Sensor" H 8750 2350 50  0001 L BNN "Field7"
F 8 "None" H 8750 2350 50  0001 L BNN "Field8"
	1    8750 2350
	-1   0    0    -1  
$EndComp
$Comp
L TEM-HUM-AM2302(4P-25.0X15.0MM) U?
U 1 1 5B798F4A
P 8750 3100
F 0 "U?" H 8600 3300 50  0000 L BNN
F 1 "AM2320" H 8600 2850 50  0000 L BNN
F 2 "SNR4-2.54-25.0X15.0X7.0MM" H 8750 3100 50  0001 L BNN
F 3 "MCM Electronics" H 8750 3100 50  0001 L BNN
F 4 "None" H 8750 3100 50  0001 L BNN "Field4"
F 5 "AM2302" H 8750 3100 50  0001 L BNN "Field5"
F 6 "Unavailable" H 8750 3100 50  0001 L BNN "Field6"
F 7 "DHT22 Temp / Humidity Sensor DHT22 Temp / Humidity Sensor" H 8750 3100 50  0001 L BNN "Field7"
F 8 "None" H 8750 3100 50  0001 L BNN "Field8"
	1    8750 3100
	-1   0    0    -1  
$EndComp
$Comp
L Thermocouple TC1
U 1 1 5B798F8B
P 2450 3750
F 0 "TC1" H 2330 3900 50  0000 C CNN
F 1 "Thermocouple" H 2250 3590 50  0000 L CNN
F 2 "" H 1875 3800 50  0001 C CNN
F 3 "" H 1875 3800 50  0001 C CNN
	1    2450 3750
	1    0    0    -1  
$EndComp
$Comp
L Thermocouple TC2
U 1 1 5B799012
P 2450 4150
F 0 "TC2" H 2330 4300 50  0000 C CNN
F 1 "Thermocouple" H 2250 3990 50  0000 L CNN
F 2 "" H 1875 4200 50  0001 C CNN
F 3 "" H 1875 4200 50  0001 C CNN
	1    2450 4150
	1    0    0    -1  
$EndComp
Wire Wire Line
	4700 3650 5250 3650
Wire Wire Line
	5250 3650 5250 4000
Wire Wire Line
	5250 4000 5850 4000
Wire Wire Line
	5850 3900 5200 3900
Wire Wire Line
	5200 3900 5200 3850
Wire Wire Line
	5200 3850 4700 3850
Wire Wire Line
	4700 3750 5200 3750
Wire Wire Line
	5200 3750 5200 3700
Wire Wire Line
	5200 3700 5850 3700
Wire Wire Line
	2550 4050 3300 4050
Wire Wire Line
	2550 4250 2750 4250
Wire Wire Line
	2750 4250 2750 4150
Wire Wire Line
	2750 4150 3300 4150
Wire Wire Line
	2550 3850 3300 3850
Wire Wire Line
	2550 3650 2750 3650
Wire Wire Line
	2750 3650 2750 3750
Wire Wire Line
	2750 3750 3300 3750
$Comp
L +3V3 #PWR?
U 1 1 5B79999A
P 4000 3450
F 0 "#PWR?" H 4000 3300 50  0001 C CNN
F 1 "+3V3" H 4000 3590 50  0000 C CNN
F 2 "" H 4000 3450 50  0001 C CNN
F 3 "" H 4000 3450 50  0001 C CNN
	1    4000 3450
	1    0    0    -1  
$EndComp
$Comp
L +3V3 #PWR?
U 1 1 5B7999BE
P 8450 2200
F 0 "#PWR?" H 8450 2050 50  0001 C CNN
F 1 "+3V3" H 8450 2340 50  0000 C CNN
F 2 "" H 8450 2200 50  0001 C CNN
F 3 "" H 8450 2200 50  0001 C CNN
	1    8450 2200
	1    0    0    -1  
$EndComp
$Comp
L +3V3 #PWR?
U 1 1 5B7999DB
P 8450 2950
F 0 "#PWR?" H 8450 2800 50  0001 C CNN
F 1 "+3V3" H 8450 3090 50  0000 C CNN
F 2 "" H 8450 2950 50  0001 C CNN
F 3 "" H 8450 2950 50  0001 C CNN
	1    8450 2950
	1    0    0    -1  
$EndComp
$Comp
L +3V3 #PWR?
U 1 1 5B799A66
P 7800 3700
F 0 "#PWR?" H 7800 3550 50  0001 C CNN
F 1 "+3V3" H 7800 3840 50  0000 C CNN
F 2 "" H 7800 3700 50  0001 C CNN
F 3 "" H 7800 3700 50  0001 C CNN
	1    7800 3700
	1    0    0    -1  
$EndComp
$Comp
L +3V3 #PWR?
U 1 1 5B799A83
P 7950 4600
F 0 "#PWR?" H 7950 4450 50  0001 C CNN
F 1 "+3V3" H 7950 4740 50  0000 C CNN
F 2 "" H 7950 4600 50  0001 C CNN
F 3 "" H 7950 4600 50  0001 C CNN
	1    7950 4600
	1    0    0    -1  
$EndComp
$Comp
L +3V3 #PWR?
U 1 1 5B799AA0
P 5450 4200
F 0 "#PWR?" H 5450 4050 50  0001 C CNN
F 1 "+3V3" H 5450 4340 50  0000 C CNN
F 2 "" H 5450 4200 50  0001 C CNN
F 3 "" H 5450 4200 50  0001 C CNN
	1    5450 4200
	1    0    0    -1  
$EndComp
Wire Wire Line
	5450 4200 5850 4200
Wire Wire Line
	7950 4600 7450 4600
Wire Wire Line
	7800 3700 7450 3700
$Comp
L VSS #PWR?
U 1 1 5B799B2C
P 4000 4450
F 0 "#PWR?" H 4000 4300 50  0001 C CNN
F 1 "VSS" H 4000 4600 50  0000 C CNN
F 2 "" H 4000 4450 50  0001 C CNN
F 3 "" H 4000 4450 50  0001 C CNN
	1    4000 4450
	-1   0    0    1   
$EndComp
$Comp
L VSS #PWR?
U 1 1 5B799B50
P 8450 2500
F 0 "#PWR?" H 8450 2350 50  0001 C CNN
F 1 "VSS" H 8450 2650 50  0000 C CNN
F 2 "" H 8450 2500 50  0001 C CNN
F 3 "" H 8450 2500 50  0001 C CNN
	1    8450 2500
	-1   0    0    1   
$EndComp
$Comp
L VSS #PWR?
U 1 1 5B799B6D
P 8450 3250
F 0 "#PWR?" H 8450 3100 50  0001 C CNN
F 1 "VSS" H 8450 3400 50  0000 C CNN
F 2 "" H 8450 3250 50  0001 C CNN
F 3 "" H 8450 3250 50  0001 C CNN
	1    8450 3250
	-1   0    0    1   
$EndComp
$Comp
L VSS #PWR?
U 1 1 5B799B8A
P 7450 4500
F 0 "#PWR?" H 7450 4350 50  0001 C CNN
F 1 "VSS" H 7450 4650 50  0000 C CNN
F 2 "" H 7450 4500 50  0001 C CNN
F 3 "" H 7450 4500 50  0001 C CNN
	1    7450 4500
	0    1    1    0   
$EndComp
$Comp
L VSS #PWR?
U 1 1 5B799BA7
P 7450 3800
F 0 "#PWR?" H 7450 3650 50  0001 C CNN
F 1 "VSS" H 7450 3950 50  0000 C CNN
F 2 "" H 7450 3800 50  0001 C CNN
F 3 "" H 7450 3800 50  0001 C CNN
	1    7450 3800
	0    1    1    0   
$EndComp
$Comp
L VSS #PWR?
U 1 1 5B799BC4
P 5850 4100
F 0 "#PWR?" H 5850 3950 50  0001 C CNN
F 1 "VSS" H 5850 4250 50  0000 C CNN
F 2 "" H 5850 4100 50  0001 C CNN
F 3 "" H 5850 4100 50  0001 C CNN
	1    5850 4100
	0    -1   -1   0   
$EndComp
Text GLabel 7900 3450 2    60   Input ~ 0
CS
Wire Wire Line
	7900 3450 7650 3450
Wire Wire Line
	7650 3450 7650 3600
Wire Wire Line
	7650 3600 7450 3600
Text GLabel 4700 3950 2    60   Input ~ 0
CS
Wire Wire Line
	8450 3050 8250 3050
Wire Wire Line
	8250 3050 8250 3350
Wire Wire Line
	8250 3350 7600 3350
Wire Wire Line
	7600 3350 7600 3400
Wire Wire Line
	7600 3400 7450 3400
Wire Wire Line
	7450 3300 8200 3300
Wire Wire Line
	8200 3300 8200 2300
Wire Wire Line
	8200 2300 8450 2300
$EndSCHEMATC
