EESchema Schematic File Version 2
LIBS:power
LIBS:device
LIBS:switches
LIBS:relays
LIBS:motors
LIBS:transistors
LIBS:conn
LIBS:linear
LIBS:regul
LIBS:74xx
LIBS:cmos4000
LIBS:adc-dac
LIBS:memory
LIBS:xilinx
LIBS:microcontrollers
LIBS:dsp
LIBS:microchip
LIBS:analog_switches
LIBS:motorola
LIBS:texas
LIBS:intel
LIBS:audio
LIBS:interface
LIBS:digital-audio
LIBS:philips
LIBS:display
LIBS:cypress
LIBS:siliconi
LIBS:opto
LIBS:atmel
LIBS:contrib
LIBS:valves
LIBS:ESP8266
LIBS:tfg
LIBS:master-cache
EELAYER 25 0
EELAYER END
$Descr A4 11693 8268
encoding utf-8
Sheet 1 1
Title "TFG-Gateway"
Date ""
Rev ""
Comp ""
Comment1 ""
Comment2 ""
Comment3 ""
Comment4 ""
$EndDescr
$Comp
L ESP-01v090 U?
U 1 1 5B79B22A
P 4450 5350
F 0 "U?" H 4450 5250 50  0000 C CNN
F 1 "ESP-01v090" H 4450 5450 50  0000 C CNN
F 2 "" H 4450 5350 50  0001 C CNN
F 3 "" H 4450 5350 50  0001 C CNN
	1    4450 5350
	1    0    0    -1  
$EndComp
$Comp
L NodeMCU1.0(ESP-12E) U?
U 1 1 5B79B2BD
P 4450 3750
F 0 "U?" H 4450 4600 60  0000 C CNN
F 1 "NodeMCU1.0(ESP-12E)" H 4450 2900 60  0000 C CNN
F 2 "" H 3850 2900 60  0000 C CNN
F 3 "" H 3850 2900 60  0000 C CNN
	1    4450 3750
	1    0    0    -1  
$EndComp
$Comp
L Micro_SD_Card J?
U 1 1 5B79B31A
P 4500 1900
F 0 "J?" H 3850 2500 50  0000 C CNN
F 1 "Micro_SD_Card" H 5150 2500 50  0000 R CNN
F 2 "" H 5650 2200 50  0001 C CNN
F 3 "" H 4500 1900 50  0001 C CNN
	1    4500 1900
	1    0    0    -1  
$EndComp
$Comp
L zs-042 U?
U 1 1 5B79B5E8
P 7100 3550
F 0 "U?" H 7100 4100 60  0000 C CNN
F 1 "zs-042" H 7100 3250 60  0000 C CNN
F 2 "" H 7100 3550 60  0001 C CNN
F 3 "" H 7100 3550 60  0001 C CNN
	1    7100 3550
	1    0    0    -1  
$EndComp
Text GLabel 6550 3350 0    60   Input ~ 0
SCL
Text GLabel 6550 3500 0    60   Input ~ 0
SDA
Text GLabel 5700 3250 2    60   Input ~ 0
SCL
Text GLabel 5700 3150 2    60   Input ~ 0
SDA
Text GLabel 3500 3750 0    60   Input ~ 0
MISO
Text GLabel 3500 3550 0    60   Input ~ 0
MOSI
Text GLabel 3200 3650 0    60   Input ~ 0
CS
Text GLabel 3200 3850 0    60   Input ~ 0
CLK
Text GLabel 3350 1800 0    60   Input ~ 0
MOSI
Text GLabel 3250 1700 0    60   Input ~ 0
CS
Text GLabel 3300 2000 0    60   Input ~ 0
CLK
Text GLabel 3350 2200 0    60   Input ~ 0
MISO
Wire Wire Line
	3250 1700 3600 1700
Wire Wire Line
	3350 1800 3600 1800
Wire Wire Line
	3300 2000 3600 2000
Wire Wire Line
	3350 2200 3600 2200
$Comp
L VSS #PWR?
U 1 1 5B7C2B69
P 3600 2100
F 0 "#PWR?" H 3600 1950 50  0001 C CNN
F 1 "VSS" H 3600 2250 50  0000 C CNN
F 2 "" H 3600 2100 50  0001 C CNN
F 3 "" H 3600 2100 50  0001 C CNN
	1    3600 2100
	0    -1   -1   0   
$EndComp
$Comp
L +3V3 #PWR?
U 1 1 5B7C2B85
P 3600 1900
F 0 "#PWR?" H 3600 1750 50  0001 C CNN
F 1 "+3V3" H 3600 2040 50  0000 C CNN
F 2 "" H 3600 1900 50  0001 C CNN
F 3 "" H 3600 1900 50  0001 C CNN
	1    3600 1900
	0    -1   -1   0   
$EndComp
Wire Wire Line
	3500 3550 3650 3550
Wire Wire Line
	3200 3650 3650 3650
Wire Wire Line
	3500 3750 3650 3750
Wire Wire Line
	3200 3850 3650 3850
$Comp
L +3V3 #PWR?
U 1 1 5B7C34DA
P 3650 4050
F 0 "#PWR?" H 3650 3900 50  0001 C CNN
F 1 "+3V3" H 3650 4190 50  0000 C CNN
F 2 "" H 3650 4050 50  0001 C CNN
F 3 "" H 3650 4050 50  0001 C CNN
	1    3650 4050
	0    -1   -1   0   
$EndComp
$Comp
L +3V3 #PWR?
U 1 1 5B7C34F1
P 5250 4450
F 0 "#PWR?" H 5250 4300 50  0001 C CNN
F 1 "+3V3" H 5250 4590 50  0000 C CNN
F 2 "" H 5250 4450 50  0001 C CNN
F 3 "" H 5250 4450 50  0001 C CNN
	1    5250 4450
	0    1    1    0   
$EndComp
$Comp
L +3V3 #PWR?
U 1 1 5B7C3508
P 5250 3550
F 0 "#PWR?" H 5250 3400 50  0001 C CNN
F 1 "+3V3" H 5250 3690 50  0000 C CNN
F 2 "" H 5250 3550 50  0001 C CNN
F 3 "" H 5250 3550 50  0001 C CNN
	1    5250 3550
	0    1    1    0   
$EndComp
$Comp
L +3V3 #PWR?
U 1 1 5B7C351F
P 3500 5500
F 0 "#PWR?" H 3500 5350 50  0001 C CNN
F 1 "+3V3" H 3500 5640 50  0000 C CNN
F 2 "" H 3500 5500 50  0001 C CNN
F 3 "" H 3500 5500 50  0001 C CNN
	1    3500 5500
	0    -1   -1   0   
$EndComp
$Comp
L VSS #PWR?
U 1 1 5B7C3536
P 3450 3950
F 0 "#PWR?" H 3450 3800 50  0001 C CNN
F 1 "VSS" H 3450 4100 50  0000 C CNN
F 2 "" H 3450 3950 50  0001 C CNN
F 3 "" H 3450 3950 50  0001 C CNN
	1    3450 3950
	0    -1   -1   0   
$EndComp
Wire Wire Line
	3450 3950 3650 3950
$Comp
L VSS #PWR?
U 1 1 5B7C35A5
P 3650 4350
F 0 "#PWR?" H 3650 4200 50  0001 C CNN
F 1 "VSS" H 3650 4500 50  0000 C CNN
F 2 "" H 3650 4350 50  0001 C CNN
F 3 "" H 3650 4350 50  0001 C CNN
	1    3650 4350
	0    -1   -1   0   
$EndComp
$Comp
L VDD #PWR?
U 1 1 5B7C35D0
P 3550 4450
F 0 "#PWR?" H 3550 4300 50  0001 C CNN
F 1 "VDD" H 3550 4600 50  0000 C CNN
F 2 "" H 3550 4450 50  0001 C CNN
F 3 "" H 3550 4450 50  0001 C CNN
	1    3550 4450
	0    -1   -1   0   
$EndComp
Wire Wire Line
	3550 4450 3650 4450
$Comp
L VSS #PWR?
U 1 1 5B7C35FD
P 5450 4350
F 0 "#PWR?" H 5450 4200 50  0001 C CNN
F 1 "VSS" H 5450 4500 50  0000 C CNN
F 2 "" H 5450 4350 50  0001 C CNN
F 3 "" H 5450 4350 50  0001 C CNN
	1    5450 4350
	0    1    1    0   
$EndComp
Wire Wire Line
	5250 4350 5450 4350
$Comp
L VSS #PWR?
U 1 1 5B7C3624
P 5450 3650
F 0 "#PWR?" H 5450 3500 50  0001 C CNN
F 1 "VSS" H 5450 3800 50  0000 C CNN
F 2 "" H 5450 3650 50  0001 C CNN
F 3 "" H 5450 3650 50  0001 C CNN
	1    5450 3650
	0    1    1    0   
$EndComp
Wire Wire Line
	5250 3650 5450 3650
Wire Wire Line
	5250 3150 5700 3150
Wire Wire Line
	5250 3250 5700 3250
$Comp
L +3V3 #PWR?
U 1 1 5B7C37FC
P 6550 3200
F 0 "#PWR?" H 6550 3050 50  0001 C CNN
F 1 "+3V3" H 6550 3340 50  0000 C CNN
F 2 "" H 6550 3200 50  0001 C CNN
F 3 "" H 6550 3200 50  0001 C CNN
	1    6550 3200
	1    0    0    -1  
$EndComp
$Comp
L VSS #PWR?
U 1 1 5B7C3813
P 6550 3650
F 0 "#PWR?" H 6550 3500 50  0001 C CNN
F 1 "VSS" H 6550 3800 50  0000 C CNN
F 2 "" H 6550 3650 50  0001 C CNN
F 3 "" H 6550 3650 50  0001 C CNN
	1    6550 3650
	-1   0    0    1   
$EndComp
Wire Wire Line
	3500 5200 3500 4750
Wire Wire Line
	3500 4750 6100 4750
Wire Wire Line
	6100 4750 6100 4150
Wire Wire Line
	6100 4150 5250 4150
Wire Wire Line
	5400 5500 5950 5500
Wire Wire Line
	5950 5500 5950 4250
Wire Wire Line
	5950 4250 5250 4250
$Comp
L VSS #PWR?
U 1 1 5B7C3865
P 5650 5200
F 0 "#PWR?" H 5650 5050 50  0001 C CNN
F 1 "VSS" H 5650 5350 50  0000 C CNN
F 2 "" H 5650 5200 50  0001 C CNN
F 3 "" H 5650 5200 50  0001 C CNN
	1    5650 5200
	-1   0    0    1   
$EndComp
Wire Wire Line
	5400 5200 5650 5200
$EndSCHEMATC
