EESchema Schematic File Version 2
LIBS:power
LIBS:device
LIBS:switches
LIBS:relays
LIBS:motors
LIBS:transistors
LIBS:conn
LIBS:linear
LIBS:regul
LIBS:74xx
LIBS:cmos4000
LIBS:adc-dac
LIBS:memory
LIBS:xilinx
LIBS:microcontrollers
LIBS:dsp
LIBS:microchip
LIBS:analog_switches
LIBS:motorola
LIBS:texas
LIBS:intel
LIBS:audio
LIBS:interface
LIBS:digital-audio
LIBS:philips
LIBS:display
LIBS:cypress
LIBS:siliconi
LIBS:opto
LIBS:atmel
LIBS:contrib
LIBS:valves
LIBS:tfg
LIBS:ADS1115
LIBS:ESP8266
LIBS:TEM-HUM-AM2302_4P-25.0X15.0MM_
LIBS:lvdt-cache
EELAYER 25 0
EELAYER END
$Descr A4 11693 8268
encoding utf-8
Sheet 1 1
Title "TFG-NODE1"
Date "2018-08-18"
Rev ""
Comp ""
Comment1 ""
Comment2 ""
Comment3 ""
Comment4 ""
$EndDescr
$Comp
L 8038 U1
U 1 1 5AFEFFB3
P 2800 2600
F 0 "U1" H 2800 2900 60  0000 C CNN
F 1 "8038" H 2800 4050 60  0000 C CNN
F 2 "" H 2800 2600 60  0001 C CNN
F 3 "" H 2800 2600 60  0001 C CNN
	1    2800 2600
	1    0    0    -1  
$EndComp
$Comp
L VSS #PWR?
U 1 1 5AFF00FE
P 4250 1700
F 0 "#PWR?" H 4250 1550 50  0001 C CNN
F 1 "VSS" H 4250 1850 50  0000 C CNN
F 2 "" H 4250 1700 50  0001 C CNN
F 3 "" H 4250 1700 50  0001 C CNN
	1    4250 1700
	0    1    1    0   
$EndComp
$Comp
L LM324 U2
U 1 1 5AFFE422
P 6800 1150
F 0 "U2" H 6800 1350 50  0000 L CNN
F 1 "LM324" H 6800 950 50  0000 L CNN
F 2 "" H 6750 1250 50  0001 C CNN
F 3 "" H 6850 1350 50  0001 C CNN
	1    6800 1150
	1    0    0    -1  
$EndComp
$Comp
L LM324 U2
U 2 1 5AFFE4A3
P 6800 2400
F 0 "U2" H 6800 2600 50  0000 L CNN
F 1 "LM324" H 6800 2200 50  0000 L CNN
F 2 "" H 6750 2500 50  0001 C CNN
F 3 "" H 6850 2600 50  0001 C CNN
	2    6800 2400
	1    0    0    -1  
$EndComp
$Comp
L LM324 U2
U 3 1 5AFFE4D4
P 8300 3300
F 0 "U2" H 8300 3500 50  0000 L CNN
F 1 "LM324" H 8300 3100 50  0000 L CNN
F 2 "" H 8250 3400 50  0001 C CNN
F 3 "" H 8350 3500 50  0001 C CNN
	3    8300 3300
	1    0    0    -1  
$EndComp
$Comp
L LM324 U2
U 4 1 5AFFE4F1
P 9700 3300
F 0 "U2" H 9700 3500 50  0000 L CNN
F 1 "LM324" H 9700 3100 50  0000 L CNN
F 2 "" H 9650 3400 50  0001 C CNN
F 3 "" H 9750 3500 50  0001 C CNN
	4    9700 3300
	1    0    0    -1  
$EndComp
$Comp
L VDD #PWR?
U 1 1 5AFFE973
P 1650 2100
F 0 "#PWR?" H 1650 1950 50  0001 C CNN
F 1 "VDD" H 1650 2250 50  0000 C CNN
F 2 "" H 1650 2100 50  0001 C CNN
F 3 "" H 1650 2100 50  0001 C CNN
	1    1650 2100
	0    -1   -1   0   
$EndComp
$Comp
L VDD #PWR?
U 1 1 5AFFEB4E
P 6700 2100
F 0 "#PWR?" H 6700 1950 50  0001 C CNN
F 1 "VDD" H 6700 2250 50  0000 C CNN
F 2 "" H 6700 2100 50  0001 C CNN
F 3 "" H 6700 2100 50  0001 C CNN
	1    6700 2100
	1    0    0    -1  
$EndComp
$Comp
L VDD #PWR?
U 1 1 5AFFEB6D
P 6700 850
F 0 "#PWR?" H 6700 700 50  0001 C CNN
F 1 "VDD" H 6700 1000 50  0000 C CNN
F 2 "" H 6700 850 50  0001 C CNN
F 3 "" H 6700 850 50  0001 C CNN
	1    6700 850 
	1    0    0    -1  
$EndComp
$Comp
L VDD #PWR?
U 1 1 5AFFEBBE
P 8200 3000
F 0 "#PWR?" H 8200 2850 50  0001 C CNN
F 1 "VDD" H 8200 3150 50  0000 C CNN
F 2 "" H 8200 3000 50  0001 C CNN
F 3 "" H 8200 3000 50  0001 C CNN
	1    8200 3000
	1    0    0    -1  
$EndComp
$Comp
L VDD #PWR?
U 1 1 5AFFEBDD
P 9600 3000
F 0 "#PWR?" H 9600 2850 50  0001 C CNN
F 1 "VDD" H 9600 3150 50  0000 C CNN
F 2 "" H 9600 3000 50  0001 C CNN
F 3 "" H 9600 3000 50  0001 C CNN
	1    9600 3000
	1    0    0    -1  
$EndComp
$Comp
L VSS #PWR?
U 1 1 5AFFEC05
P 6700 1450
F 0 "#PWR?" H 6700 1300 50  0001 C CNN
F 1 "VSS" H 6700 1600 50  0000 C CNN
F 2 "" H 6700 1450 50  0001 C CNN
F 3 "" H 6700 1450 50  0001 C CNN
	1    6700 1450
	-1   0    0    1   
$EndComp
$Comp
L VSS #PWR?
U 1 1 5AFFEC42
P 6700 2700
F 0 "#PWR?" H 6700 2550 50  0001 C CNN
F 1 "VSS" H 6700 2850 50  0000 C CNN
F 2 "" H 6700 2700 50  0001 C CNN
F 3 "" H 6700 2700 50  0001 C CNN
	1    6700 2700
	-1   0    0    1   
$EndComp
$Comp
L VSS #PWR?
U 1 1 5AFFEC61
P 8200 3600
F 0 "#PWR?" H 8200 3450 50  0001 C CNN
F 1 "VSS" H 8200 3750 50  0000 C CNN
F 2 "" H 8200 3600 50  0001 C CNN
F 3 "" H 8200 3600 50  0001 C CNN
	1    8200 3600
	-1   0    0    1   
$EndComp
$Comp
L VSS #PWR?
U 1 1 5AFFEC80
P 9600 3600
F 0 "#PWR?" H 9600 3450 50  0001 C CNN
F 1 "VSS" H 9600 3750 50  0000 C CNN
F 2 "" H 9600 3600 50  0001 C CNN
F 3 "" H 9600 3600 50  0001 C CNN
	1    9600 3600
	-1   0    0    1   
$EndComp
Text GLabel 1650 1300 0    60   Input ~ 0
SIN_IN
Text GLabel 5400 1050 0    60   Input ~ 0
SIN_IN
$Comp
L R R1
U 1 1 5AFFF2C0
P 5900 1050
F 0 "R1" V 5980 1050 50  0000 C CNN
F 1 "10k" V 5900 1050 50  0000 C CNN
F 2 "" V 5830 1050 50  0001 C CNN
F 3 "" H 5900 1050 50  0001 C CNN
	1    5900 1050
	0    -1   -1   0   
$EndComp
$Comp
L R R2
U 1 1 5AFFF56B
P 6150 1300
F 0 "R2" V 6230 1300 50  0000 C CNN
F 1 "10k" V 6150 1300 50  0000 C CNN
F 2 "" V 6080 1300 50  0001 C CNN
F 3 "" H 6150 1300 50  0001 C CNN
	1    6150 1300
	1    0    0    -1  
$EndComp
$Comp
L Transformer_1P_SS T1
U 1 1 5AFFF5B6
P 8200 1350
F 0 "T1" H 8200 1600 50  0000 C CNN
F 1 "Transformer_1P_SS" H 8200 1050 50  0000 C CNN
F 2 "" H 8200 1350 50  0001 C CNN
F 3 "" H 8200 1350 50  0001 C CNN
	1    8200 1350
	1    0    0    -1  
$EndComp
Wire Wire Line
	6500 1250 6500 1700
Wire Wire Line
	6500 1700 7100 1700
Wire Wire Line
	7100 1700 7100 1150
Wire Wire Line
	7100 1150 7800 1150
Wire Wire Line
	6050 1050 6500 1050
Wire Wire Line
	6150 1050 6150 1150
Connection ~ 6150 1050
Wire Wire Line
	5400 1050 5750 1050
Wire Wire Line
	7200 1550 7200 2400
Wire Wire Line
	6500 2500 6500 2950
Wire Wire Line
	6500 2950 7100 2950
Wire Wire Line
	7100 2950 7100 2400
Wire Wire Line
	7100 2400 7200 2400
Connection ~ 7200 1800
$Comp
L R R3
U 1 1 5B00069D
P 5900 2300
F 0 "R3" V 5980 2300 50  0000 C CNN
F 1 "30k" V 5900 2300 50  0000 C CNN
F 2 "" V 5830 2300 50  0001 C CNN
F 3 "" H 5900 2300 50  0001 C CNN
	1    5900 2300
	0    -1   -1   0   
$EndComp
$Comp
L R R4
U 1 1 5B0006A3
P 6150 2550
F 0 "R4" V 6230 2550 50  0000 C CNN
F 1 "10k" V 6150 2550 50  0000 C CNN
F 2 "" V 6080 2550 50  0001 C CNN
F 3 "" H 6150 2550 50  0001 C CNN
	1    6150 2550
	1    0    0    -1  
$EndComp
Wire Wire Line
	6050 2300 6500 2300
Wire Wire Line
	6150 2300 6150 2400
Connection ~ 6150 2300
Wire Wire Line
	5650 2300 5750 2300
Wire Wire Line
	6150 2700 6150 2800
$Comp
L VSS #PWR?
U 1 1 5B00071E
P 6150 2800
F 0 "#PWR?" H 6150 2650 50  0001 C CNN
F 1 "VSS" H 6150 2950 50  0000 C CNN
F 2 "" H 6150 2800 50  0001 C CNN
F 3 "" H 6150 2800 50  0001 C CNN
	1    6150 2800
	-1   0    0    1   
$EndComp
$Comp
L VDD #PWR?
U 1 1 5B000751
P 5650 2300
F 0 "#PWR?" H 5650 2150 50  0001 C CNN
F 1 "VDD" H 5650 2450 50  0000 C CNN
F 2 "" H 5650 2300 50  0001 C CNN
F 3 "" H 5650 2300 50  0001 C CNN
	1    5650 2300
	1    0    0    -1  
$EndComp
Wire Wire Line
	7200 1550 7800 1550
Text GLabel 7400 1900 2    60   Input ~ 0
Vref
Wire Wire Line
	7400 1900 7200 1900
Connection ~ 7200 1900
Text GLabel 7650 1000 0    60   Input ~ 0
SIN_1
Wire Wire Line
	7650 1000 7650 1150
Connection ~ 7650 1150
Text GLabel 8800 1550 2    60   Input ~ 0
Vref
Wire Wire Line
	8600 1550 8800 1550
Text GLabel 8800 1150 2    60   Input ~ 0
SIN_2
Wire Wire Line
	8600 1150 8800 1150
Text GLabel 7350 3400 0    60   Input ~ 0
SIN_2
Text GLabel 7350 3550 0    60   Input ~ 0
SIN_1
$Comp
L R R5
U 1 1 5B002048
P 7650 3400
F 0 "R5" V 7730 3400 50  0000 C CNN
F 1 "10k" V 7650 3400 50  0000 C CNN
F 2 "" V 7580 3400 50  0001 C CNN
F 3 "" H 7650 3400 50  0001 C CNN
	1    7650 3400
	0    1    1    0   
$EndComp
$Comp
L R R6
U 1 1 5B00209F
P 7650 3550
F 0 "R6" V 7730 3550 50  0000 C CNN
F 1 "10k" V 7650 3550 50  0000 C CNN
F 2 "" V 7580 3550 50  0001 C CNN
F 3 "" H 7650 3550 50  0001 C CNN
	1    7650 3550
	0    1    1    0   
$EndComp
$Comp
L R R7
U 1 1 5B0020FA
P 8300 3900
F 0 "R7" V 8380 3900 50  0000 C CNN
F 1 "10k" V 8300 3900 50  0000 C CNN
F 2 "" V 8230 3900 50  0001 C CNN
F 3 "" H 8300 3900 50  0001 C CNN
	1    8300 3900
	0    1    1    0   
$EndComp
Wire Wire Line
	7350 3400 7500 3400
Wire Wire Line
	7350 3550 7500 3550
Wire Wire Line
	7800 3400 8000 3400
Wire Wire Line
	7800 3550 7950 3550
Wire Wire Line
	7950 3400 7950 3900
Connection ~ 7950 3400
Wire Wire Line
	7950 3900 8150 3900
Connection ~ 7950 3550
Wire Wire Line
	8600 3900 8450 3900
Wire Wire Line
	8600 3300 8600 3900
Text GLabel 7350 3200 0    60   Input ~ 0
Vref
Wire Wire Line
	7350 3200 8000 3200
Text GLabel 9100 3200 0    60   Input ~ 0
Vref
Wire Wire Line
	9100 3200 9400 3200
$Comp
L R R8
U 1 1 5B0028AD
P 9050 3400
F 0 "R8" V 9130 3400 50  0000 C CNN
F 1 "100k" V 9050 3400 50  0000 C CNN
F 2 "" V 8980 3400 50  0001 C CNN
F 3 "" H 9050 3400 50  0001 C CNN
	1    9050 3400
	0    1    1    0   
$EndComp
Wire Wire Line
	8900 3400 8600 3400
Connection ~ 8600 3400
Wire Wire Line
	9200 3400 9400 3400
$Comp
L D D1
U 1 1 5B002A16
P 9650 3900
F 0 "D1" H 9650 4000 50  0000 C CNN
F 1 "D" H 9650 3800 50  0000 C CNN
F 2 "" H 9650 3900 50  0001 C CNN
F 3 "" H 9650 3900 50  0001 C CNN
	1    9650 3900
	-1   0    0    1   
$EndComp
$Comp
L D D2
U 1 1 5B002A79
P 10300 3300
F 0 "D2" H 10300 3400 50  0000 C CNN
F 1 "D" H 10300 3200 50  0000 C CNN
F 2 "" H 10300 3300 50  0001 C CNN
F 3 "" H 10300 3300 50  0001 C CNN
	1    10300 3300
	-1   0    0    1   
$EndComp
$Comp
L R R9
U 1 1 5B002AC4
P 9650 4150
F 0 "R9" V 9730 4150 50  0000 C CNN
F 1 "100k" V 9650 4150 50  0000 C CNN
F 2 "" V 9580 4150 50  0001 C CNN
F 3 "" H 9650 4150 50  0001 C CNN
	1    9650 4150
	0    1    1    0   
$EndComp
Wire Wire Line
	9300 3400 9300 4150
Wire Wire Line
	9300 3900 9500 3900
Connection ~ 9300 3400
Wire Wire Line
	9300 4150 9500 4150
Connection ~ 9300 3900
Wire Wire Line
	10000 3300 10150 3300
Wire Wire Line
	9800 3900 10050 3900
Wire Wire Line
	10050 3900 10050 3300
Connection ~ 10050 3300
Wire Wire Line
	9800 4150 10450 4150
Wire Wire Line
	10450 4150 10450 3300
Text GLabel 10700 3300 2    60   Input ~ 0
Vout
Wire Wire Line
	10450 3300 10700 3300
$Comp
L R R?
U 1 1 5B01480E
P 1550 1700
F 0 "R?" V 1630 1700 50  0000 C CNN
F 1 "R" V 1550 1700 50  0000 C CNN
F 2 "" V 1480 1700 50  0001 C CNN
F 3 "" H 1550 1700 50  0001 C CNN
	1    1550 1700
	0    1    1    0   
$EndComp
$Comp
L R R?
U 1 1 5B0148B3
P 1550 1900
F 0 "R?" V 1630 1900 50  0000 C CNN
F 1 "R" V 1550 1900 50  0000 C CNN
F 2 "" V 1480 1900 50  0001 C CNN
F 3 "" H 1550 1900 50  0001 C CNN
	1    1550 1900
	0    1    1    0   
$EndComp
$Comp
L POT RV1
U 1 1 5B014A8F
P 1150 1700
F 0 "RV1" V 975 1700 50  0000 C CNN
F 1 "10k" V 1050 1700 50  0000 C CNN
F 2 "" H 1150 1700 50  0001 C CNN
F 3 "" H 1150 1700 50  0001 C CNN
	1    1150 1700
	0    -1   -1   0   
$EndComp
Wire Wire Line
	1300 1700 1400 1700
$Comp
L VDD #PWR?
U 1 1 5B014C3F
P 1150 1550
F 0 "#PWR?" H 1150 1400 50  0001 C CNN
F 1 "VDD" H 1150 1700 50  0000 C CNN
F 2 "" H 1150 1550 50  0001 C CNN
F 3 "" H 1150 1550 50  0001 C CNN
	1    1150 1550
	1    0    0    -1  
$EndComp
Wire Wire Line
	3800 1700 4250 1700
Wire Wire Line
	1000 1700 1000 1900
Wire Wire Line
	1000 1900 1400 1900
Wire Wire Line
	1700 1900 1800 1900
Wire Wire Line
	1800 1700 1700 1700
NoConn ~ 1800 1100
NoConn ~ 1800 1500
NoConn ~ 3800 1500
Wire Wire Line
	1800 2300 1800 2550
Wire Wire Line
	1800 2550 3800 2550
Wire Wire Line
	3800 2550 3800 2300
Wire Wire Line
	1650 2100 1800 2100
$Comp
L C C1
U 1 1 5B017484
P 4000 1900
F 0 "C1" H 4025 2000 50  0000 L CNN
F 1 "6n" H 4025 1800 50  0000 L CNN
F 2 "" H 4038 1750 50  0001 C CNN
F 3 "" H 4000 1900 50  0001 C CNN
	1    4000 1900
	0    1    1    0   
$EndComp
Wire Wire Line
	3800 1900 3850 1900
Wire Wire Line
	4150 1900 4150 1700
Connection ~ 4150 1700
Wire Wire Line
	1650 1300 1800 1300
$Comp
L R R?
U 1 1 5B017CD8
P 3950 2100
F 0 "R?" V 4030 2100 50  0000 C CNN
F 1 "10k" V 3950 2100 50  0000 C CNN
F 2 "" V 3880 2100 50  0001 C CNN
F 3 "" H 3950 2100 50  0001 C CNN
	1    3950 2100
	0    1    1    0   
$EndComp
$Comp
L VDD #PWR?
U 1 1 5B017D3F
P 4100 2100
F 0 "#PWR?" H 4100 1950 50  0001 C CNN
F 1 "VDD" H 4100 2250 50  0000 C CNN
F 2 "" H 4100 2100 50  0001 C CNN
F 3 "" H 4100 2100 50  0001 C CNN
	1    4100 2100
	0    1    1    0   
$EndComp
$Comp
L VSS #PWR?
U 1 1 5B081A39
P 6150 1600
F 0 "#PWR?" H 6150 1450 50  0001 C CNN
F 1 "VSS" H 6150 1750 50  0000 C CNN
F 2 "" H 6150 1600 50  0001 C CNN
F 3 "" H 6150 1600 50  0001 C CNN
	1    6150 1600
	-1   0    0    1   
$EndComp
Wire Wire Line
	6150 1600 6150 1450
$Comp
L LM324 U3
U 1 1 5B08340B
P 2850 3850
F 0 "U3" H 2850 4050 50  0000 L CNN
F 1 "LM324" H 2850 3650 50  0000 L CNN
F 2 "" H 2800 3950 50  0001 C CNN
F 3 "" H 2900 4050 50  0001 C CNN
	1    2850 3850
	1    0    0    -1  
$EndComp
$Comp
L VDD #PWR?
U 1 1 5B083A1F
P 2750 3550
F 0 "#PWR?" H 2750 3400 50  0001 C CNN
F 1 "VDD" H 2750 3700 50  0000 C CNN
F 2 "" H 2750 3550 50  0001 C CNN
F 3 "" H 2750 3550 50  0001 C CNN
	1    2750 3550
	1    0    0    -1  
$EndComp
$Comp
L VSS #PWR?
U 1 1 5B083BD8
P 2750 4150
F 0 "#PWR?" H 2750 4000 50  0001 C CNN
F 1 "VSS" H 2750 4300 50  0000 C CNN
F 2 "" H 2750 4150 50  0001 C CNN
F 3 "" H 2750 4150 50  0001 C CNN
	1    2750 4150
	-1   0    0    1   
$EndComp
$Comp
L R R?
U 1 1 5B083F6D
P 1800 3750
F 0 "R?" V 1880 3750 50  0000 C CNN
F 1 "100k" V 1800 3750 50  0000 C CNN
F 2 "" V 1730 3750 50  0001 C CNN
F 3 "" H 1800 3750 50  0001 C CNN
	1    1800 3750
	0    1    1    0   
$EndComp
$Comp
L R R?
U 1 1 5B083FDE
P 2050 4000
F 0 "R?" V 2130 4000 50  0000 C CNN
F 1 "100k" V 2050 4000 50  0000 C CNN
F 2 "" V 1980 4000 50  0001 C CNN
F 3 "" H 2050 4000 50  0001 C CNN
	1    2050 4000
	1    0    0    -1  
$EndComp
$Comp
L R R?
U 1 1 5B08402B
P 2800 4500
F 0 "R?" V 2880 4500 50  0000 C CNN
F 1 "100k" V 2800 4500 50  0000 C CNN
F 2 "" V 2730 4500 50  0001 C CNN
F 3 "" H 2800 4500 50  0001 C CNN
	1    2800 4500
	0    1    1    0   
$EndComp
$Comp
L R R?
U 1 1 5B0840BC
P 2300 4500
F 0 "R?" V 2380 4500 50  0000 C CNN
F 1 "100k" V 2300 4500 50  0000 C CNN
F 2 "" V 2230 4500 50  0001 C CNN
F 3 "" H 2300 4500 50  0001 C CNN
	1    2300 4500
	0    1    1    0   
$EndComp
Wire Wire Line
	1950 3750 2550 3750
Wire Wire Line
	2050 3750 2050 3850
Connection ~ 2050 3750
Wire Wire Line
	2450 4500 2650 4500
Wire Wire Line
	2550 3950 2550 4500
Connection ~ 2550 4500
Wire Wire Line
	2950 4500 3150 4500
Wire Wire Line
	3150 4500 3150 3850
$Comp
L VSS #PWR?
U 1 1 5B0844E5
P 2050 4150
F 0 "#PWR?" H 2050 4000 50  0001 C CNN
F 1 "VSS" H 2050 4300 50  0000 C CNN
F 2 "" H 2050 4150 50  0001 C CNN
F 3 "" H 2050 4150 50  0001 C CNN
	1    2050 4150
	-1   0    0    1   
$EndComp
$Comp
L LM324 U3
U 2 1 5B0845D1
P 1700 5000
F 0 "U3" H 1700 5200 50  0000 L CNN
F 1 "LM324" H 1700 4800 50  0000 L CNN
F 2 "" H 1650 5100 50  0001 C CNN
F 3 "" H 1750 5200 50  0001 C CNN
	2    1700 5000
	1    0    0    -1  
$EndComp
$Comp
L VDD #PWR?
U 1 1 5B084708
P 1600 4700
F 0 "#PWR?" H 1600 4550 50  0001 C CNN
F 1 "VDD" H 1600 4850 50  0000 C CNN
F 2 "" H 1600 4700 50  0001 C CNN
F 3 "" H 1600 4700 50  0001 C CNN
	1    1600 4700
	1    0    0    -1  
$EndComp
$Comp
L VSS #PWR?
U 1 1 5B084783
P 1600 5300
F 0 "#PWR?" H 1600 5150 50  0001 C CNN
F 1 "VSS" H 1600 5450 50  0000 C CNN
F 2 "" H 1600 5300 50  0001 C CNN
F 3 "" H 1600 5300 50  0001 C CNN
	1    1600 5300
	-1   0    0    1   
$EndComp
Wire Wire Line
	2000 5000 2150 5000
Wire Wire Line
	2150 5000 2150 4500
Wire Wire Line
	1400 5100 1400 5600
Wire Wire Line
	1400 5600 2000 5600
Wire Wire Line
	2000 5600 2000 5000
$Comp
L POT RV?
U 1 1 5B084923
P 5650 5250
F 0 "RV?" V 5475 5250 50  0000 C CNN
F 1 "100k" V 5550 5250 50  0000 C CNN
F 2 "" H 5650 5250 50  0001 C CNN
F 3 "" H 5650 5250 50  0001 C CNN
	1    5650 5250
	1    0    0    -1  
$EndComp
Wire Wire Line
	5800 5250 6400 5250
$Comp
L VSS #PWR?
U 1 1 5B084A9B
P 5650 5400
F 0 "#PWR?" H 5650 5250 50  0001 C CNN
F 1 "VSS" H 5650 5550 50  0000 C CNN
F 2 "" H 5650 5400 50  0001 C CNN
F 3 "" H 5650 5400 50  0001 C CNN
	1    5650 5400
	-1   0    0    1   
$EndComp
Text GLabel 1600 3750 0    60   Input ~ 0
Vout
Wire Wire Line
	1600 3750 1650 3750
$Comp
L LM324 U3
U 3 1 5B085888
P 4400 3950
F 0 "U3" H 4400 4150 50  0000 L CNN
F 1 "LM324" H 4400 3750 50  0000 L CNN
F 2 "" H 4350 4050 50  0001 C CNN
F 3 "" H 4450 4150 50  0001 C CNN
	3    4400 3950
	1    0    0    -1  
$EndComp
$Comp
L VDD #PWR?
U 1 1 5B085985
P 4300 3650
F 0 "#PWR?" H 4300 3500 50  0001 C CNN
F 1 "VDD" H 4300 3800 50  0000 C CNN
F 2 "" H 4300 3650 50  0001 C CNN
F 3 "" H 4300 3650 50  0001 C CNN
	1    4300 3650
	1    0    0    -1  
$EndComp
$Comp
L VSS #PWR?
U 1 1 5B0859EA
P 4300 4250
F 0 "#PWR?" H 4300 4100 50  0001 C CNN
F 1 "VSS" H 4300 4400 50  0000 C CNN
F 2 "" H 4300 4250 50  0001 C CNN
F 3 "" H 4300 4250 50  0001 C CNN
	1    4300 4250
	-1   0    0    1   
$EndComp
$Comp
L R R?
U 1 1 5B085A33
P 4400 4550
F 0 "R?" V 4480 4550 50  0000 C CNN
F 1 "100k" V 4400 4550 50  0000 C CNN
F 2 "" V 4330 4550 50  0001 C CNN
F 3 "" H 4400 4550 50  0001 C CNN
	1    4400 4550
	0    1    1    0   
$EndComp
$Comp
L R R?
U 1 1 5B085AA8
P 3900 4550
F 0 "R?" V 3980 4550 50  0000 C CNN
F 1 "100k" V 3900 4550 50  0000 C CNN
F 2 "" V 3830 4550 50  0001 C CNN
F 3 "" H 3900 4550 50  0001 C CNN
	1    3900 4550
	0    1    1    0   
$EndComp
$Comp
L VSS #PWR?
U 1 1 5B085B3F
P 3650 4650
F 0 "#PWR?" H 3650 4500 50  0001 C CNN
F 1 "VSS" H 3650 4800 50  0000 C CNN
F 2 "" H 3650 4650 50  0001 C CNN
F 3 "" H 3650 4650 50  0001 C CNN
	1    3650 4650
	-1   0    0    1   
$EndComp
Wire Wire Line
	3650 4650 3650 4550
Wire Wire Line
	3650 4550 3750 4550
Wire Wire Line
	4050 4550 4250 4550
Wire Wire Line
	4100 4050 4100 4550
Connection ~ 4100 4550
Wire Wire Line
	4550 4550 4700 4550
Wire Wire Line
	4700 4550 4700 3950
Wire Wire Line
	3150 3850 4100 3850
$Comp
L VSS #PWR?
U 1 1 5B227E09
P 7800 5850
F 0 "#PWR?" H 7800 5700 50  0001 C CNN
F 1 "VSS" H 7800 6000 50  0000 C CNN
F 2 "" H 7800 5850 50  0001 C CNN
F 3 "" H 7800 5850 50  0001 C CNN
	1    7800 5850
	-1   0    0    1   
$EndComp
$Comp
L +3.3V #PWR?
U 1 1 5B227EB0
P 6250 4650
F 0 "#PWR?" H 6250 4500 50  0001 C CNN
F 1 "+3.3V" H 6250 4790 50  0000 C CNN
F 2 "" H 6250 4650 50  0001 C CNN
F 3 "" H 6250 4650 50  0001 C CNN
	1    6250 4650
	1    0    0    -1  
$EndComp
Wire Wire Line
	6250 4650 6250 4850
$Comp
L POT RV?
U 1 1 5B229464
P 950 4900
F 0 "RV?" V 775 4900 50  0000 C CNN
F 1 "100k" V 850 4900 50  0000 C CNN
F 2 "" H 950 4900 50  0001 C CNN
F 3 "" H 950 4900 50  0001 C CNN
	1    950  4900
	1    0    0    -1  
$EndComp
$Comp
L VDD #PWR?
U 1 1 5B2295D2
P 950 4750
F 0 "#PWR?" H 950 4600 50  0001 C CNN
F 1 "VDD" H 950 4900 50  0000 C CNN
F 2 "" H 950 4750 50  0001 C CNN
F 3 "" H 950 4750 50  0001 C CNN
	1    950  4750
	1    0    0    -1  
$EndComp
$Comp
L VSS #PWR?
U 1 1 5B229643
P 950 5050
F 0 "#PWR?" H 950 4900 50  0001 C CNN
F 1 "VSS" H 950 5200 50  0000 C CNN
F 2 "" H 950 5050 50  0001 C CNN
F 3 "" H 950 5050 50  0001 C CNN
	1    950  5050
	-1   0    0    1   
$EndComp
Wire Wire Line
	1100 4900 1400 4900
$Comp
L ADS1115 U?
U 1 1 5B215162
P 7000 5300
F 0 "U?" H 6500 6076 50  0000 L BNN
F 1 "ADS1115" H 7000 5300 50  0001 L BNN
F 2 "MSOP10" H 7000 5300 50  0001 L BNN
F 3 "XFQFN-10 Texas Instruments" H 7000 5300 50  0001 L BNN
F 4 "Texas Instruments" H 7000 5300 50  0001 L BNN "Field4"
F 5 "None" H 7000 5300 50  0001 L BNN "Field5"
F 6 "ADS1115" H 7000 5300 50  0001 L BNN "Field6"
F 7 "16-Bit ADC with Integrated MUX PGA Comparator Oscillator and Reference" H 7000 5300 50  0001 L BNN "Field7"
F 8 "Unavailable" H 7000 5300 50  0001 L BNN "Field8"
	1    7000 5300
	1    0    0    -1  
$EndComp
Wire Wire Line
	6250 4850 6400 4850
Wire Wire Line
	7600 5650 7800 5650
Wire Wire Line
	7800 5650 7800 5850
$Comp
L R R?
U 1 1 5B22A735
P 5100 3950
F 0 "R?" V 5180 3950 50  0000 C CNN
F 1 "3M" V 5100 3950 50  0000 C CNN
F 2 "" V 5030 3950 50  0001 C CNN
F 3 "" H 5100 3950 50  0001 C CNN
	1    5100 3950
	0    1    1    0   
$EndComp
$Comp
L R R?
U 1 1 5B22A7FA
P 5600 3950
F 0 "R?" V 5680 3950 50  0000 C CNN
F 1 "1M" V 5600 3950 50  0000 C CNN
F 2 "" V 5530 3950 50  0001 C CNN
F 3 "" H 5600 3950 50  0001 C CNN
	1    5600 3950
	0    1    1    0   
$EndComp
$Comp
L C C?
U 1 1 5B22A865
P 5350 4200
F 0 "C?" H 5375 4300 50  0000 L CNN
F 1 "1u" H 5375 4100 50  0000 L CNN
F 2 "" H 5388 4050 50  0001 C CNN
F 3 "" H 5350 4200 50  0001 C CNN
	1    5350 4200
	1    0    0    -1  
$EndComp
$Comp
L C C?
U 1 1 5B22A901
P 5850 4200
F 0 "C?" H 5875 4300 50  0000 L CNN
F 1 "1u" H 5875 4100 50  0000 L CNN
F 2 "" H 5888 4050 50  0001 C CNN
F 3 "" H 5850 4200 50  0001 C CNN
	1    5850 4200
	1    0    0    -1  
$EndComp
Wire Wire Line
	4700 3950 4950 3950
Wire Wire Line
	5250 3950 5450 3950
Wire Wire Line
	5750 3950 6100 3950
Wire Wire Line
	5850 3950 5850 4050
Wire Wire Line
	5350 3950 5350 4050
Connection ~ 5350 3950
$Comp
L VSS #PWR?
U 1 1 5B22AC4F
P 5350 4350
F 0 "#PWR?" H 5350 4200 50  0001 C CNN
F 1 "VSS" H 5350 4500 50  0000 C CNN
F 2 "" H 5350 4350 50  0001 C CNN
F 3 "" H 5350 4350 50  0001 C CNN
	1    5350 4350
	-1   0    0    1   
$EndComp
$Comp
L VSS #PWR?
U 1 1 5B22ACD3
P 5850 4350
F 0 "#PWR?" H 5850 4200 50  0001 C CNN
F 1 "VSS" H 5850 4500 50  0000 C CNN
F 2 "" H 5850 4350 50  0001 C CNN
F 3 "" H 5850 4350 50  0001 C CNN
	1    5850 4350
	-1   0    0    1   
$EndComp
Wire Wire Line
	6100 3950 6100 5050
Wire Wire Line
	6100 5050 6400 5050
Connection ~ 5850 3950
$Comp
L +3V3 #PWR?
U 1 1 5B323D10
P 5650 5100
F 0 "#PWR?" H 5650 4950 50  0001 C CNN
F 1 "+3V3" H 5650 5240 50  0000 C CNN
F 2 "" H 5650 5100 50  0001 C CNN
F 3 "" H 5650 5100 50  0001 C CNN
	1    5650 5100
	1    0    0    -1  
$EndComp
$Comp
L VSS #PWR?
U 1 1 5B324FB2
P 7850 5050
F 0 "#PWR?" H 7850 4900 50  0001 C CNN
F 1 "VSS" H 7850 5200 50  0000 C CNN
F 2 "" H 7850 5050 50  0001 C CNN
F 3 "" H 7850 5050 50  0001 C CNN
	1    7850 5050
	-1   0    0    1   
$EndComp
Wire Wire Line
	7600 5050 7850 5050
$Comp
L NodeMCU1.0(ESP-12E) U?
U 1 1 5B782A8A
P 3600 6200
F 0 "U?" H 3600 7050 60  0000 C CNN
F 1 "NodeMCU1.0(ESP-12E)" H 3600 5350 60  0000 C CNN
F 2 "" H 3000 5350 60  0000 C CNN
F 3 "" H 3000 5350 60  0000 C CNN
	1    3600 6200
	1    0    0    -1  
$EndComp
$Comp
L +3.3V #PWR?
U 1 1 5B783CFD
P 4700 6000
F 0 "#PWR?" H 4700 5850 50  0001 C CNN
F 1 "+3.3V" H 4700 6140 50  0000 C CNN
F 2 "" H 4700 6000 50  0001 C CNN
F 3 "" H 4700 6000 50  0001 C CNN
	1    4700 6000
	0    1    1    0   
$EndComp
$Comp
L VSS #PWR?
U 1 1 5B783DA4
P 4700 6100
F 0 "#PWR?" H 4700 5950 50  0001 C CNN
F 1 "VSS" H 4700 6250 50  0000 C CNN
F 2 "" H 4700 6100 50  0001 C CNN
F 3 "" H 4700 6100 50  0001 C CNN
	1    4700 6100
	-1   0    0    1   
$EndComp
Wire Wire Line
	4400 6100 4700 6100
Wire Wire Line
	4700 6000 4400 6000
$Comp
L +3.3V #PWR?
U 1 1 5B783F72
P 4650 7100
F 0 "#PWR?" H 4650 6950 50  0001 C CNN
F 1 "+3.3V" H 4650 7240 50  0000 C CNN
F 2 "" H 4650 7100 50  0001 C CNN
F 3 "" H 4650 7100 50  0001 C CNN
	1    4650 7100
	1    0    0    -1  
$EndComp
$Comp
L +3.3V #PWR?
U 1 1 5B783FF2
P 2450 6600
F 0 "#PWR?" H 2450 6450 50  0001 C CNN
F 1 "+3.3V" H 2450 6740 50  0000 C CNN
F 2 "" H 2450 6600 50  0001 C CNN
F 3 "" H 2450 6600 50  0001 C CNN
	1    2450 6600
	1    0    0    -1  
$EndComp
$Comp
L VSS #PWR?
U 1 1 5B784072
P 4750 6800
F 0 "#PWR?" H 4750 6650 50  0001 C CNN
F 1 "VSS" H 4750 6950 50  0000 C CNN
F 2 "" H 4750 6800 50  0001 C CNN
F 3 "" H 4750 6800 50  0001 C CNN
	1    4750 6800
	0    1    1    0   
$EndComp
Wire Wire Line
	4400 6900 4500 6900
Wire Wire Line
	4500 6900 4500 7100
Wire Wire Line
	4500 7100 4650 7100
Wire Wire Line
	4400 6800 4750 6800
Wire Wire Line
	2800 6500 2600 6500
Wire Wire Line
	2600 6500 2600 6600
Wire Wire Line
	2600 6600 2450 6600
$Comp
L VSS #PWR?
U 1 1 5B7844EF
P 2500 6300
F 0 "#PWR?" H 2500 6150 50  0001 C CNN
F 1 "VSS" H 2500 6450 50  0000 C CNN
F 2 "" H 2500 6300 50  0001 C CNN
F 3 "" H 2500 6300 50  0001 C CNN
	1    2500 6300
	0    -1   -1   0   
$EndComp
Wire Wire Line
	2500 6300 2500 6400
Wire Wire Line
	2500 6400 2800 6400
$Comp
L VSS #PWR?
U 1 1 5B78475B
P 2550 6800
F 0 "#PWR?" H 2550 6650 50  0001 C CNN
F 1 "VSS" H 2550 6950 50  0000 C CNN
F 2 "" H 2550 6800 50  0001 C CNN
F 3 "" H 2550 6800 50  0001 C CNN
	1    2550 6800
	0    -1   -1   0   
$EndComp
Wire Wire Line
	2550 6800 2800 6800
$Comp
L +5V #PWR?
U 1 1 5B784854
P 2600 7050
F 0 "#PWR?" H 2600 6900 50  0001 C CNN
F 1 "+5V" H 2600 7190 50  0000 C CNN
F 2 "" H 2600 7050 50  0001 C CNN
F 3 "" H 2600 7050 50  0001 C CNN
	1    2600 7050
	1    0    0    -1  
$EndComp
Wire Wire Line
	2600 7050 2800 7050
Wire Wire Line
	2800 7050 2800 6900
Text GLabel 7800 5500 2    60   Input ~ 0
SDA
Text GLabel 7800 5350 2    60   Input ~ 0
SCL
Wire Wire Line
	7600 5250 7700 5250
Wire Wire Line
	7700 5250 7700 5350
Wire Wire Line
	7700 5350 7800 5350
Wire Wire Line
	7600 5450 7700 5450
Wire Wire Line
	7700 5450 7700 5500
Wire Wire Line
	7700 5500 7800 5500
$Comp
L TEM-HUM-AM2302(4P-25.0X15.0MM) U?
U 1 1 5B784CC2
P 5850 5950
F 0 "U?" H 5700 6150 50  0000 L BNN
F 1 "DHT22" H 5700 5700 50  0000 L BNN
F 2 "SNR4-2.54-25.0X15.0X7.0MM" H 5850 5950 50  0001 L BNN
F 3 "MCM Electronics" H 5850 5950 50  0001 L BNN
F 4 "None" H 5850 5950 50  0001 L BNN "Field4"
F 5 "AM2302" H 5850 5950 50  0001 L BNN "Field5"
F 6 "Unavailable" H 5850 5950 50  0001 L BNN "Field6"
F 7 "DHT22 Temp / Humidity Sensor DHT22 Temp / Humidity Sensor" H 5850 5950 50  0001 L BNN "Field7"
F 8 "None" H 5850 5950 50  0001 L BNN "Field8"
	1    5850 5950
	-1   0    0    1   
$EndComp
$Comp
L TEM-HUM-AM2302(4P-25.0X15.0MM) U?
U 1 1 5B785E23
P 5850 6800
F 0 "U?" H 5700 7000 50  0000 L BNN
F 1 "AM2320" H 5700 6550 50  0000 L BNN
F 2 "SNR4-2.54-25.0X15.0X7.0MM" H 5850 6800 50  0001 L BNN
F 3 "MCM Electronics" H 5850 6800 50  0001 L BNN
F 4 "None" H 5850 6800 50  0001 L BNN "Field4"
F 5 "AM2302" H 5850 6800 50  0001 L BNN "Field5"
F 6 "Unavailable" H 5850 6800 50  0001 L BNN "Field6"
F 7 "DHT22 Temp / Humidity Sensor DHT22 Temp / Humidity Sensor" H 5850 6800 50  0001 L BNN "Field7"
F 8 "None" H 5850 6800 50  0001 L BNN "Field8"
	1    5850 6800
	-1   0    0    1   
$EndComp
$Comp
L VSS #PWR?
U 1 1 5B78905B
P 5550 5800
F 0 "#PWR?" H 5550 5650 50  0001 C CNN
F 1 "VSS" H 5550 5950 50  0000 C CNN
F 2 "" H 5550 5800 50  0001 C CNN
F 3 "" H 5550 5800 50  0001 C CNN
	1    5550 5800
	0    -1   -1   0   
$EndComp
$Comp
L VSS #PWR?
U 1 1 5B7890E1
P 5550 6650
F 0 "#PWR?" H 5550 6500 50  0001 C CNN
F 1 "VSS" H 5550 6800 50  0000 C CNN
F 2 "" H 5550 6650 50  0001 C CNN
F 3 "" H 5550 6650 50  0001 C CNN
	1    5550 6650
	0    -1   -1   0   
$EndComp
$Comp
L +3.3V #PWR?
U 1 1 5B789167
P 5300 7100
F 0 "#PWR?" H 5300 6950 50  0001 C CNN
F 1 "+3.3V" H 5300 7240 50  0000 C CNN
F 2 "" H 5300 7100 50  0001 C CNN
F 3 "" H 5300 7100 50  0001 C CNN
	1    5300 7100
	1    0    0    -1  
$EndComp
$Comp
L +3.3V #PWR?
U 1 1 5B7891ED
P 5300 6300
F 0 "#PWR?" H 5300 6150 50  0001 C CNN
F 1 "+3.3V" H 5300 6440 50  0000 C CNN
F 2 "" H 5300 6300 50  0001 C CNN
F 3 "" H 5300 6300 50  0001 C CNN
	1    5300 6300
	1    0    0    -1  
$EndComp
Wire Wire Line
	5300 6300 5550 6300
Wire Wire Line
	5550 6300 5550 6100
Wire Wire Line
	5300 7100 5550 7100
Wire Wire Line
	5550 7100 5550 6950
Wire Wire Line
	4400 5800 5200 5800
Wire Wire Line
	5200 5800 5200 6000
Wire Wire Line
	5200 6000 5550 6000
Wire Wire Line
	4400 5900 5100 5900
Wire Wire Line
	5100 5900 5100 6850
Wire Wire Line
	5100 6850 5550 6850
Text GLabel 4950 5700 2    60   Input ~ 0
SDA
Text GLabel 4950 5550 2    60   Input ~ 0
SCL
Wire Wire Line
	4650 5550 4950 5550
Wire Wire Line
	4400 5700 4950 5700
Wire Wire Line
	4400 5600 4650 5600
Wire Wire Line
	4650 5600 4650 5550
$EndSCHEMATC
